ID,TITLE,OFFERING_TEMPLATE_NO,VERSION,DOMAIN,AVAIL_FROM,CURRENCY,PRICE,CUSTOM0,LOCALE,DELIVERY_TYPE
M060_EN,Considering how you spend your time -  النظر فى كيفية إدارة الوقت,M060_EN,0,Test,2015-08-01,USD,0,Cegos,en_US,Web-Based
M101_EN,Customer relationship building trust,M101_EN,0,Test,2015-08-01,USD,0,Cegos,en_US,Web-Based
M102_EN,Customer relationship practising active listening,M102_EN,0,Test,2015-08-01,USD,0,Cegos,en_US,Web-Based
M103_EN,Customer relationship reaching agreement,M103_EN,0,Test,2015-08-01,USD,0,Cegos,en_US,Web-Based
M100_EN,Customer relationship the stakes,M100_EN,0,Test,2015-08-01,USD,0,Cegos,en_US,Web-Based
M109_EN,Developing internal cooperation for customers,M109_EN,0,Test,2015-08-01,USD,0,Cegos,en_US,Web-Based
M008_EN,Emotional intelligence fundamentals,M008_EN,0,Test,2015-08-01,USD,0,Cegos,en_US,Web-Based
M061_EN,Focusing on your priorities,M061_EN,0,Test,2015-08-01,USD,0,Cegos,en_US,Web-Based
M151_EN,Guiding team and individual actions,M151_EN,0,Test,2015-08-01,USD,0,Cegos,en_US,Web-Based
M010_EN,Handling Stress,M010_EN,0,Test,2015-08-01,USD,0,Cegos,en_US,Web-Based
M224_EN,Managing your time strategically,M224_EN,0,Test,2015-08-01,USD,0,Cegos,en_US,Web-Based
