ID,CLASS_NO,COURSE,DOMAIN,START_DATE,SESSION_TEMPLATE,DURATION,LOCATION,LANGUAGE,CURRENCY,OFFERING_PRICE,MIN_COUNT,MAX_COUNT,MAX_WAITLIST,COURSE_VERSION,DELIVERY_TYPE,PERSON1,PERSON_PURPOSE1
ILT0001,ILT0001,SCHEDULELAB,Test,8/31/2015,Lab Slot 1,1:00,Location 1,english,US dollars,0,1,16,0,1,Instructor-Led, LabAdmin1,instructor
ILT0005,ILT0005,SCHEDULELAB,Test,9/1/2015,Lab Slot 2,1:00,Location 2,english,US dollars,0,1,16,0,1,Instructor-Led, LabAdmin2,instructor
ILT0003,ILT0003,SCHEDULELAB,Test,9/2/2015,Lab Slot 3,1:00,Location 1,english,US dollars,0,1,16,0,1,Instructor-Led, LabAdmin1,instructor
ILT0004,ILT0004,SCHEDULELAB,Test,9/3/2015,Lab Slot 4,1:00,Location 2,english,US dollars,0,1,16,0,1,Instructor-Led, LabAdmin2,instructor
ILT0006,ILT0006,SCHEDULELAB,Test,9/6/2015,Lab Slot 5,1:00,Location 1,english,US dollars,0,1,16,0,1,Instructor-Led, LabAdmin1,instructor
ILT0007,ILT0007,SCHEDULELAB,Test,9/7/2015,Lab Slot 1,1:00,Location 2,english,US dollars,0,1,16,0,1,Instructor-Led, LabAdmin2,instructor
ILT0008,ILT0008,SCHEDULELAB,Test,9/8/2015,Lab Slot 2,1:00,Location 1,english,US dollars,0,1,16,0,1,Instructor-Led, LabAdmin1,instructor
ILT0009,ILT0009,SCHEDULELAB,Test,10/4/2015,Lab Slot 5,1:00,Location 2,english,US dollars,0,1,16,0,1,Instructor-Led, LabAdmin2,instructor
ILT0010,ILT0010,SCHEDULELAB,Test,10/5/2015,Lab Slot 1,1:00,Location 1,english,US dollars,0,1,16,0,1,Instructor-Led, LabAdmin1,instructor
ILT0011,ILT0011,SCHEDULELAB,Test,10/6/2015,Lab Slot 2,1:00,Location 2,english,US dollars,0,1,16,0,1,Instructor-Led, LabAdmin2,instructor
